parte2/simulation/qsim/parte2.msim.vcd
$comment
	File created using the following command:
		vcd file parte2.msim.vcd -direction
$end
$date
	Mon Sep 23 11:54:31 2024
$end
$version
	ModelSim Version 10.5b
$end
$timescale
	1ps
$end

$scope module parte2_vhd_vec_tst $end
$var wire 1 ! clk $end
$var wire 1 " count [3] $end
$var wire 1 # count [2] $end
$var wire 1 $ count [1] $end
$var wire 1 % count [0] $end
$var wire 1 & reset $end

$scope module i1 $end
$var wire 1 ' gnd $end
$var wire 1 ( vcc $end
$var wire 1 ) unknown $end
$var wire 1 * devoe $end
$var wire 1 + devclrn $end
$var wire 1 , devpor $end
$var wire 1 - ww_devoe $end
$var wire 1 . ww_devclrn $end
$var wire 1 / ww_devpor $end
$var wire 1 0 ww_clk $end
$var wire 1 1 ww_reset $end
$var wire 1 2 ww_count [3] $end
$var wire 1 3 ww_count [2] $end
$var wire 1 4 ww_count [1] $end
$var wire 1 5 ww_count [0] $end
$var wire 1 6 \clk~inputclkctrl_INCLK_bus\ [3] $end
$var wire 1 7 \clk~inputclkctrl_INCLK_bus\ [2] $end
$var wire 1 8 \clk~inputclkctrl_INCLK_bus\ [1] $end
$var wire 1 9 \clk~inputclkctrl_INCLK_bus\ [0] $end
$var wire 1 : \count[0]~output_o\ $end
$var wire 1 ; \count[1]~output_o\ $end
$var wire 1 < \count[2]~output_o\ $end
$var wire 1 = \count[3]~output_o\ $end
$var wire 1 > \clk~input_o\ $end
$var wire 1 ? \clk~inputclkctrl_outclk\ $end
$var wire 1 @ \reset~input_o\ $end
$var wire 1 A \countr~0_combout\ $end
$var wire 1 B \countr~1_combout\ $end
$var wire 1 C \countr~2_combout\ $end
$var wire 1 D \countr~3_combout\ $end
$var wire 1 E \countr~4_combout\ $end
$var wire 1 F countr [3] $end
$var wire 1 G countr [2] $end
$var wire 1 H countr [1] $end
$var wire 1 I countr [0] $end
$upscope $end
$upscope $end
$enddefinitions $end
#0
$dumpvars
0!
0&
0'
1(
x)
1*
1+
1,
1-
1.
1/
00
01
0:
0;
0<
0=
0>
0?
0@
1A
0B
0C
1D
0E
02
03
04
05
0F
0G
0H
0I
16
17
18
09
0"
0#
0$
0%
$end
#20000
1!
10
1>
19
1?
1I
0A
1B
1:
15
1%
#40000
0!
00
0>
09
0?
#60000
1!
10
1>
19
1?
0I
1H
1A
1;
0:
14
05
0%
1$
#80000
0!
00
0>
09
0?
#100000
1!
10
1>
19
1?
1I
0A
0B
1C
1:
15
1%
#120000
0!
00
0>
09
0?
#140000
1!
10
1>
19
1?
0I
0H
1G
1A
1<
0;
0:
13
04
05
0%
0$
1#
#160000
0!
00
0>
09
0?
#180000
1!
10
1>
19
1?
1I
0A
1B
1:
15
1%
#200000
0!
00
0>
09
0?
#220000
1!
10
1>
19
1?
0I
1H
0D
1A
1;
0:
14
05
0%
1$
#240000
0!
00
0>
09
0?
#260000
1!
10
1>
19
1?
1I
0A
0B
0C
1E
1:
15
1%
#280000
0!
00
0>
09
0?
#300000
1!
10
1>
19
1?
0I
0H
0G
1F
1D
1A
1=
0<
0;
0:
12
03
04
05
0%
0$
0#
1"
#320000
0!
00
0>
09
0?
#340000
1!
10
1>
19
1?
1I
0A
1B
1:
15
1%
#360000
0!
00
0>
09
0?
#380000
1!
10
1>
19
1?
0I
1H
1A
1;
0:
14
05
0%
1$
#400000
0!
00
0>
09
0?
#420000
1!
10
1>
19
1?
1I
0A
0B
1C
1:
15
1%
#440000
0!
00
0>
09
0?
#460000
1!
10
1>
19
1?
0I
0H
1G
1A
1<
0;
0:
13
04
05
0%
0$
1#
#480000
0!
00
0>
09
0?
#500000
1!
10
1>
19
1?
1I
0A
1B
1:
15
1%
#520000
0!
00
0>
09
0?
#540000
1!
1&
10
11
1@
1>
19
0B
0C
0E
1?
0I
0G
0F
0=
0<
0:
02
03
05
0%
0#
0"
#560000
0!
00
0>
09
0?
#580000
1!
10
1>
19
1?
#600000
0!
00
0>
09
0?
#620000
1!
10
1>
19
1?
#640000
0!
0&
00
01
0@
0>
09
1A
0?
#660000
1!
10
1>
19
1?
1I
0A
1B
1:
15
1%
#680000
0!
00
0>
09
0?
#700000
1!
10
1>
19
1?
0I
1H
1A
1;
0:
14
05
0%
1$
#720000
0!
00
0>
09
0?
#740000
1!
10
1>
19
1?
1I
0A
0B
1C
1:
15
1%
#760000
0!
00
0>
09
0?
#780000
1!
10
1>
19
1?
0I
0H
1G
1A
1<
0;
0:
13
04
05
0%
0$
1#
#800000
0!
00
0>
09
0?
#820000
1!
10
1>
19
1?
1I
0A
1B
1:
15
1%
#840000
0!
00
0>
09
0?
#860000
1!
10
1>
19
1?
0I
1H
0D
1A
1;
0:
14
05
0%
1$
#880000
0!
00
0>
09
0?
#900000
1!
10
1>
19
1?
1I
0A
0B
0C
1E
1:
15
1%
#920000
0!
00
0>
09
0?
#940000
1!
10
1>
19
1?
0I
0H
0G
1F
1D
1A
1=
0<
0;
0:
12
03
04
05
0%
0$
0#
1"
#960000
0!
00
0>
09
0?
#980000
1!
10
1>
19
1?
1I
0A
1B
1:
15
1%
